﻿I'm sorry, but errors were detected in your script. Please correct the
errors listed below, and try again.


File "game/script.rpy", line 12458: play requires a file
    play dyingsoldiers
                      ^

Ren'Py Version: Ren'Py 7.1.3.1092
Sun Jun 09 18:43:18 2019
